<svg xmlns="http://www.w3.org/2000/svg" viewBox="1469.263 -17915.736 172.902 71.488">
  <defs>
    <style>
      .cls-1 {
        fill: #fff;
      }

      .cls-2 {
        fill: #656b6c;
      }

      .cls-3 {
        fill: #696f70;
      }

      .cls-4 {
        fill: #696e6f;
      }

      .cls-5 {
        fill: #676d6e;
      }

      .cls-6 {
        fill: #6a6f71;
      }

      .cls-7 {
        fill: #666c6d;
      }
    </style>
  </defs>
  <g id="Group_251" data-name="Group 251" transform="translate(-42.166 -18121)">
    <path id="Path_277" data-name="Path 277" class="cls-1" d="M399.38,184.651a.342.342,0,0,0-.181-.09,2.587,2.587,0,0,1-2.393-2.484,16.1,16.1,0,0,1,.09-5.1,2.4,2.4,0,0,1,1.9-1.987,5.706,5.706,0,0,1,2.619-.045,2.621,2.621,0,0,1,2.168,2.8,20.3,20.3,0,0,1-.09,4.38,2.576,2.576,0,0,1-2.529,2.484,1.15,1.15,0,0,0-.316.09A11.018,11.018,0,0,0,399.38,184.651Z" transform="translate(1267.245 87.728)"/>
    <path id="Path_278" data-name="Path 278" class="cls-1" d="M39.177,14.022V19.8c0,.361-.09.452-.452.452a17.056,17.056,0,0,0-3.071,33.823,18.75,18.75,0,0,0,3.161.316c.316,0,.361.09.361.361V66.585c0,.452-.226.406-.5.406a29.294,29.294,0,0,1-12.509-2.845,23.719,23.719,0,0,1-2.98-1.626c-.316-.226-.5-.181-.768.09-3.748,3.748-7.5,7.5-11.2,11.244a5.686,5.686,0,0,1-6.728,1.4c-2.98-1.49-4.832-4.471-3.7-7.857a5.444,5.444,0,0,1,1.4-2.213L13.528,53.851c.271-.271.361-.452.135-.813A28.416,28.416,0,0,1,9.193,38.723,29.649,29.649,0,0,1,34.165,8.061,30.436,30.436,0,0,1,38.681,7.7c.406,0,.5.135.5.5Z" transform="translate(1510.97 200.925)"/>
    <path id="Path_279" data-name="Path 279" class="cls-1" d="M231.1,101.982c.632-1.671,1.264-3.342,1.9-4.967,1.4-3.658,2.8-7.315,4.154-10.973a.7.7,0,0,1,.813-.542,26.21,26.21,0,0,0,2.664,0,.583.583,0,0,1,.587.406c1.9,5.058,3.838,10.115,5.735,15.218a4.685,4.685,0,0,1,.181.452,1.083,1.083,0,0,0,.09-.632v-14.9c0-.406.09-.542.542-.542,2.393.045,4.787,0,7.225.045a9.7,9.7,0,0,1,2.529.316,3.509,3.509,0,0,1,2.755,2.935,10.1,10.1,0,0,1,0,3.3,2.377,2.377,0,0,1-1.355,1.851c1.31.587,1.49,1.716,1.49,2.935.045,1.58,0,3.161,0,4.787,0,.316-.09.452-.406.406q-1.355-.068-2.709,0c-.406,0-.452-.135-.406-.452V97.512c0-1.219-.316-1.535-1.49-1.671-1.355-.135-2.709-.045-4.064-.09-.406,0-.361.181-.361.452v5.374c0,.361-.09.5-.452.5H243.97a.518.518,0,0,1-.587-.452c-.316-.993-.677-1.942-.993-2.89-.09-.316-.226-.452-.587-.406h-4.967c-.361,0-.452.135-.587.406-.361.993-.722,1.987-1.039,2.98-.09.181-.135.361-.406.361C233.493,101.982,232.319,101.982,231.1,101.982Z" transform="translate(1384.481 158.258)"/>
    <path id="Path_280" data-name="Path 280" class="cls-1" d="M217.362,59.482c-.5-1.039-.813-2.168-1.219-3.3-.135-.316-.271-.452-.587-.406h-4.922a.536.536,0,0,0-.587.406c-.316.993-.722,1.987-1.039,2.98-.09.271-.226.361-.542.361H194.152c-.406,0-.452-.135-.452-.5V43.5c0-.406.09-.5.5-.5h10.793c.361,0,.5.09.5.452a20.36,20.36,0,0,0,0,2.348c0,.361-.09.452-.452.452h-7.225c-.406,0-.5.09-.5.5a18.831,18.831,0,0,1,0,2.258c0,.406.135.5.5.452h6.864c.452,0,.542.135.542.542a18.084,18.084,0,0,0,0,2.213c0,.361-.09.5-.5.5h-6.864c-.406,0-.542.09-.542.542a23.618,23.618,0,0,1,0,2.529c0,.406.09.5.5.5h7.09c.406,0,.587.09.542.542a3.713,3.713,0,0,0,.09,1.219c.406-1.039.813-2.077,1.219-3.161,1.445-3.793,2.89-7.632,4.335-11.425.135-.316.271-.452.587-.452q1.355.068,2.709,0a.677.677,0,0,1,.722.452c1.671,4.471,3.342,8.9,5.012,13.321.271.677.5,1.4.768,2.077.045.587,0,.632-.542.632C219.349,59.482,218.356,59.573,217.362,59.482Z" transform="translate(1404.992 181.566)"/>
    <path id="Path_281" data-name="Path 281" class="cls-1" d="M199.9,89.5c-.948,4.019-1.9,7.993-2.845,11.967-.09.361-.181.452-.542.452-.993-.045-1.942,0-2.935,0a.467.467,0,0,1-.542-.406c-1.129-5.238-2.3-10.431-3.477-15.67-.09-.361,0-.452.361-.452a25.334,25.334,0,0,0,2.619,0c.361,0,.5.09.542.452.632,3.116,1.264,6.277,1.851,9.393a5.466,5.466,0,0,0,.406,1.4c.406-1.716.813-3.477,1.219-5.193.452-1.9.9-3.748,1.31-5.645.09-.316.181-.452.542-.406.993.045,2.032.045,3.026,0,.316,0,.452.09.5.406.858,3.522,1.761,7.045,2.619,10.612.045.09.045.226.181.316.406-2.122.813-4.2,1.219-6.277.316-1.535.587-3.071.9-4.606.045-.316.181-.406.5-.406a23.61,23.61,0,0,0,2.529,0c.452,0,.452.135.361.5l-2.3,10.16-1.219,5.419c-.09.361-.226.452-.587.452-.948,0-1.9-.045-2.89,0-.361,0-.5-.09-.587-.452-.858-3.838-1.761-7.632-2.664-11.47A.576.576,0,0,0,199.9,89.5Z" transform="translate(1407.28 158.323)"/>
    <path id="Path_282" data-name="Path 282" class="cls-1" d="M125.209,21.3A27.727,27.727,0,0,1,129,24.777c.181.181.09.406.09.632v38.7a1.181,1.181,0,0,1-.406.993,29.319,29.319,0,0,1-3.522,3.161C125.119,67.812,125.119,21.887,125.209,21.3Z" transform="translate(1442.595 193.467)"/>
    <path id="Path_283" data-name="Path 283" class="cls-1" d="M249.3,8.628V.952c0-.316.045-.452.452-.452,2.439.045,4.877,0,7.315.045A8.4,8.4,0,0,1,258.6.726c.406.045.5.226.5.587v14.9a.467.467,0,0,1-.406.542,11.707,11.707,0,0,1-2.168.181h-6.683c-.452,0-.542-.135-.542-.587C249.345,13.776,249.3,11.2,249.3,8.628Z" transform="translate(1374.499 204.874)"/>
    <path id="Path_284" data-name="Path 284" class="cls-1" d="M246.1,59.474c.948,0,1.851-.045,2.8,0,.5,0,.723-.135.768-.587a2.256,2.256,0,0,0,.226.316V43.579c0-.5.135-.587.587-.587,2.755.045,5.509-.09,8.264.09a8.621,8.621,0,0,1,1.49.271,3.459,3.459,0,0,1,2.619,3.026,9.712,9.712,0,0,1,0,3.026,2.384,2.384,0,0,1-1.4,1.987,2.611,2.611,0,0,1,1.49,2.709c.045,1.671,0,3.342,0,4.967,0,.316-.09.452-.406.406a26.214,26.214,0,0,0-2.664,0c-.406,0-.452-.135-.452-.5,0-1.445,0-2.935-.045-4.38a1.159,1.159,0,0,0-1.219-1.355c-1.445-.135-2.935-.045-4.38-.09-.361,0-.271.226-.271.452v5.419c0,.316-.045.452-.406.452h-6.819C246.235,59.519,246.19,59.474,246.1,59.474Z" transform="translate(1376.254 181.574)"/>
    <path id="Path_285" data-name="Path 285" class="cls-1" d="M299,93.664V85.852c0-.316.045-.452.452-.452,2.348.045,4.7,0,7.045.045a7.1,7.1,0,0,1,4.019,1.084,4.949,4.949,0,0,1,1.942,3.387,24.606,24.606,0,0,1-.045,7.722,4.711,4.711,0,0,1-4.561,4.154c-2.664.271-5.328.09-7.993.135-.813,0-.813,0-.813-.768C299,98.631,299,96.147,299,93.664Z" transform="translate(1347.242 158.312)"/>
    <path id="Path_286" data-name="Path 286" class="cls-1" d="M337.664,85a12.616,12.616,0,0,1,3.884.542,4.268,4.268,0,0,1,2.98,4.245c0,.226-.09.316-.316.316h-2.98c-.181,0-.316-.045-.316-.271a1.535,1.535,0,0,0-1.264-1.355,7.587,7.587,0,0,0-4.019,0c-.813.226-1.039.632-1.039,1.581a1.178,1.178,0,0,0,1.084,1.31,13.893,13.893,0,0,0,2.755.226,14.665,14.665,0,0,1,3.116.361,3.732,3.732,0,0,1,3.026,3.658,6.676,6.676,0,0,1-.045,1.9,4.517,4.517,0,0,1-4.019,4.064,13.781,13.781,0,0,1-6.5-.181A4.232,4.232,0,0,1,330.8,97.1c0-.271.09-.361.361-.361h2.98c.135,0,.316-.09.316.181.135,1.039.9,1.355,1.761,1.535a8.336,8.336,0,0,0,3.342-.09,1.667,1.667,0,0,0,1.264-2.348c-.226-.677-.813-.813-1.445-.9-1.4-.135-2.755-.135-4.155-.316a11.976,11.976,0,0,1-1.355-.271,3.724,3.724,0,0,1-2.935-3.793,7.02,7.02,0,0,1,.135-2.168c.406-1.942,1.716-3.071,3.974-3.432C335.858,85.09,336.716,85,337.664,85Z" transform="translate(1329.802 158.532)"/>
    <path id="Path_287" data-name="Path 287" class="cls-1" d="M167.419,42.6a13.026,13.026,0,0,1,4.154.587,4.249,4.249,0,0,1,2.8,4.109c0,.316-.09.406-.406.406h-2.8c-.181,0-.361.045-.406-.226a1.6,1.6,0,0,0-1.535-1.445,8.13,8.13,0,0,0-3.613,0,1.422,1.422,0,0,0-1.264,1.671,1.389,1.389,0,0,0,1.445,1.4c1.129.09,2.258.135,3.387.226a9.218,9.218,0,0,1,2.484.406,3.578,3.578,0,0,1,2.529,2.755,7.047,7.047,0,0,1,.045,3.071,4.3,4.3,0,0,1-3.251,3.477,13.26,13.26,0,0,1-7.27,0,4.013,4.013,0,0,1-3.116-4.2c0-.316.09-.452.406-.406.948.045,1.9,0,2.8,0,.271,0,.406.045.452.316a1.534,1.534,0,0,0,1.264,1.264,7.587,7.587,0,0,0,4.019,0,1.684,1.684,0,0,0,1.039-2.438,1.238,1.238,0,0,0-.948-.677,15.489,15.489,0,0,0-2.529-.226,21.1,21.1,0,0,1-3.342-.406,3.646,3.646,0,0,1-2.98-3.3,7.881,7.881,0,0,1,.181-3.251,4.178,4.178,0,0,1,3.387-2.8A14.779,14.779,0,0,1,167.419,42.6Z" transform="translate(1423.145 181.785)"/>
    <path id="Path_289" data-name="Path 289" class="cls-1" d="M331.686,51.154v7.677c0,.406-.09.587-.542.542a25.334,25.334,0,0,0-2.619,0c-.406,0-.542-.09-.542-.542.045-1.942,0-3.884.045-5.78,0-.452-.135-.542-.542-.542-1.58.045-3.161,0-4.787,0-.361,0-.5.09-.5.452v5.916c0,.406-.09.5-.5.452-.9-.045-1.851,0-2.755,0-.316,0-.452-.045-.452-.406V43.206c0-.316.09-.406.406-.406.948,0,1.9.045,2.89,0,.361,0,.406.09.406.406v5.6c0,.361.09.452.452.452h4.832c.406,0,.542-.09.5-.5-.045-1.806,0-3.658,0-5.464,0-.361.09-.5.5-.5q1.355.068,2.709,0c.406,0,.5.09.5.5Z" transform="translate(1336.548 181.676)"/>
    <path id="Path_290" data-name="Path 290" class="cls-1" d="M158.4,101.927c.948-2.438,1.851-4.832,2.755-7.225,1.129-2.935,2.258-5.87,3.342-8.806a.633.633,0,0,1,.677-.5c.948.045,1.9,0,2.8,0a.4.4,0,0,1,.452.271c2.032,5.374,4.064,10.793,6.1,16.166v.09h-3.567c-.271,0-.316-.181-.361-.361-.361-.993-.722-1.987-1.039-2.935a.518.518,0,0,0-.587-.452c-1.626.045-3.3.045-4.922,0a.518.518,0,0,0-.587.452c-.316.993-.677,1.987-1.039,2.935a.423.423,0,0,1-.5.361Z" transform="translate(1424.351 158.312)"/>
    <path id="Path_293" data-name="Path 293" class="cls-1" d="M292.824,42.6a11.011,11.011,0,0,1,3.838.587,4.333,4.333,0,0,1,2.89,4.064c0,.316-.045.5-.406.452-.948-.045-1.9,0-2.89,0-.271,0-.361-.045-.406-.361a1.362,1.362,0,0,0-1.219-1.31,8.88,8.88,0,0,0-2.89-.09,2.127,2.127,0,0,0-1.987,1.9,17.748,17.748,0,0,0,0,6.367,2.234,2.234,0,0,0,2.3,1.987,7.382,7.382,0,0,0,2.439-.09,1.478,1.478,0,0,0,1.4-1.445c.045-.181.045-.271.271-.271h3.071c.406,0,.316.271.316.452a4.174,4.174,0,0,1-2.89,4.019,11.388,11.388,0,0,1-7.451.045,4.318,4.318,0,0,1-3.071-3.613,24.976,24.976,0,0,1-.045-8.4c.406-2.529,1.9-3.793,4.425-4.2C291.334,42.645,292.1,42.645,292.824,42.6Z" transform="translate(1354.502 181.785)"/>
    <path id="Path_294" data-name="Path 294" class="cls-1" d="M191.245,8.6V.921c0-.452.135-.587.587-.542a4.352,4.352,0,0,0,1.084,0c.542-.09.632.181.587.632-.045,1.987,0,3.929,0,5.916,0,.406.09.542.5.542,2.213-.045,4.425,0,6.683,0,.406,0,.5-.09.5-.5-.045-2.032,0-4.064,0-6.051,0-.361.09-.542.452-.5a6.346,6.346,0,0,0,1.31,0c.361-.045.452.135.452.452V16.365c0,.452-.09.632-.587.587-.542-.045-1.219.226-1.581-.135-.316-.316-.09-.993-.09-1.535V9.907c0-.361-.09-.5-.452-.5h-6.728c-.406,0-.5.135-.5.5v6.412c0,.452-.09.677-.587.587a4.721,4.721,0,0,0-1.129,0c-.406.045-.542-.09-.542-.542C191.245,13.745,191.245,11.172,191.245,8.6Z" transform="translate(1406.363 204.95)"/>
    <path id="Path_295" data-name="Path 295" class="cls-1" d="M222.1,8.564V.8c0-.406.09-.5.5-.5h9.844c.361,0,.5.09.5.5a4.351,4.351,0,0,0,0,1.084c.045.361-.09.5-.5.5h-7.315c-.813,0-.813,0-.813.813V6.8c0,.452.09.587.542.587,2.438-.045,4.832,0,7.27-.045.452,0,.632.09.587.542s.181,1.084-.09,1.355-.9.09-1.355.09h-6.457c-.361,0-.5.09-.5.5,0,1.49.045,2.98,0,4.516,0,.406.09.5.5.5h7.586c.406,0,.587.09.542.542-.045.5.181,1.084-.09,1.4-.271.271-.9.09-1.355.09h-8.67c-.813,0-.723.045-.723-.677C222.1,13.621,222.1,11.093,222.1,8.564Z" transform="translate(1389.42 204.984)"/>
    <path id="Path_296" data-name="Path 296" class="cls-1" d="M103.044,102.6v13.908c0,.406-.135.587-.5.677a32.752,32.752,0,0,1-4.109,1.174c-.361.09-.542.045-.542-.406V105.942c0-.226-.045-.406.226-.542A19.177,19.177,0,0,0,103.044,102.6Z" transform="translate(1457.535 148.879)"/>
    <path id="Path_297" data-name="Path 297" class="cls-1" d="M98.045,9a34.761,34.761,0,0,1,4.832,1.355c.226.09.226.226.226.406V24.67c-.181.045-.271-.09-.361-.181a17.022,17.022,0,0,0-4.335-2.438c-.226-.09-.406-.135-.406-.452V9.135A.35.35,0,0,1,98.045,9Z" transform="translate(1457.476 200.212)"/>
    <path id="Path_299" data-name="Path 299" class="cls-1" d="M269.751,181.5c.316-1.355.677-2.709.993-4.064.135-.632.316-1.31.452-1.942a.423.423,0,0,1,.542-.406,6.345,6.345,0,0,0,1.31,0c.406-.045.542.135.632.542.452,1.851.948,3.748,1.4,5.6,0,.09,0,.181.181.226.181-.993.406-1.942.587-2.935s.361-1.987.587-2.98c.045-.271.135-.5.5-.452a4.718,4.718,0,0,0,1.129,0c.361,0,.406.135.361.452-.587,2.574-1.174,5.1-1.761,7.677-.09.5-.045,1.174-.406,1.4a4.419,4.419,0,0,1-1.9.09c-.271,0-.271-.226-.316-.406-.271-1.084-.5-2.213-.768-3.3s-.5-2.213-.813-3.387a8.583,8.583,0,0,0-.5,1.761c-.406,1.671-.813,3.342-1.174,5.012-.09.316-.226.406-.5.406h-1.355a.467.467,0,0,1-.542-.406c-.632-2.89-1.264-5.78-1.942-8.625-.09-.452-.045-.587.452-.587,1.535.045,1.535,0,1.806,1.535.316,1.626.632,3.3.993,4.922C269.706,181.5,269.751,181.5,269.751,181.5Z" transform="translate(1338.666 87.58)"/>
    <path id="Path_300" data-name="Path 300" class="cls-1" d="M423.383,176.806h-3.7c-.858,0-.768.09-.768-.768,0-1.039,0-1.039,1.084-1.039h5.148c.452,0,.542.135.587.587a3.886,3.886,0,0,1-.587,2.213c-1.129,2.122-2.258,4.29-3.342,6.412a.733.733,0,0,1-.723.452H413.72c-.452,0-.542-.135-.542-.542,0-1.264,0-1.264,1.264-1.264.813,0,.813,0,.813-.813v-4.2c-.045-.045-.09-.045-.135-.09-.271.316-.542.587-.813.9-.181.226-.316.181-.542,0-1.129-1.039-1.129-1.039-.045-2.077a3.448,3.448,0,0,0,.406-.406,2.545,2.545,0,0,1,2.619-1.084c.5.045.587.181.587.632v6.683c0,.406.09.587.542.542h.452c1.174,0,1.174,0,1.219,1.31C420.809,181.638,422.074,179.29,423.383,176.806Z" transform="translate(1258.324 87.625)"/>
    <path id="Path_301" data-name="Path 301" class="cls-1" d="M165.838,9.512c0-2.168-.045-4.38,0-6.548,0-.587-.181-.677-.677-.677-1.355.045-2.664,0-4.019,0-.361,0-.5-.09-.452-.452a4.72,4.72,0,0,0,0-1.129c-.045-.361.135-.406.452-.406h11.651c.271,0,.452.045.406.361-.045.5.135,1.174-.09,1.535-.226.316-.948.09-1.445.09-.993,0-1.942.045-2.935,0-.5,0-.677.09-.677.632.045,4.425,0,8.851.045,13.276,0,.542-.135.723-.677.632-.5-.045-1.219.226-1.49-.135-.271-.271-.09-.948-.09-1.445Z" transform="translate(1423.1 204.984)"/>
    <path id="Path_302" data-name="Path 302" class="cls-1" d="M368.077,12.421c-.361,1.31-.768,2.664-1.129,3.974-.09.406-.271.542-.677.5a4.721,4.721,0,0,0-1.129,0c-.452.045-.542-.135-.542-.542V8.99a5.307,5.307,0,0,1,.406-1.716l1.761-6.232A.588.588,0,0,1,367.445.5c1.31.045,1.31,0,1.31,1.355V16.4c-.045.226.135.542-.316.542s-.271-.316-.271-.5V12.512C368.122,12.421,368.122,12.421,368.077,12.421Z" transform="translate(1311.266 204.874)"/>
    <path id="Path_303" data-name="Path 303" class="cls-1" d="M144.2,44.7a28.885,28.885,0,0,1,0,25.83Z" transform="translate(1432.139 180.633)"/>
    <path id="Path_304" data-name="Path 304" class="cls-1" d="M319.3,8.212V.9c0-.361.09-.5.5-.5.587.045,1.174,0,1.806,0,.271,0,.406.045.406.361,0,2.664-.045,5.329-.045,8.038a21.2,21.2,0,0,0,.09,2.393c.09.858.316,1.039,1.174,1.084.948.045.948.045.948.993v3.342c0,.271-.045.452-.361.452a8.983,8.983,0,0,1-3.929-.768.733.733,0,0,1-.452-.723C319.3,13.089,319.3,10.651,319.3,8.212Z" transform="translate(1336.109 204.929)"/>
    <path id="Path_305" data-name="Path 305" class="cls-1" d="M355.77,12.421V16.35c0,.181.181.5-.226.542-.406,0-.271-.316-.271-.5V1.042c0-.406.09-.542.5-.542,1.264,0,1.264,0,1.626,1.264.542,1.851,1.039,3.658,1.581,5.509a4.191,4.191,0,0,1,.135,1.084v8.128c0,.361-.09.5-.5.5-.5-.045-1.174.135-1.535-.09-.316-.271-.361-.948-.5-1.445-.271-.993-.542-1.942-.813-2.935C355.816,12.421,355.816,12.421,355.77,12.421Z" transform="translate(1316.392 204.874)"/>
    <path id="Path_307" data-name="Path 307" class="cls-1" d="M326.49,180.859V175.44c0-.452.09-.587.542-.587,1.4.045,1.4,0,1.4,1.4v7.677c0,.406-.09.5-.542.542a2.065,2.065,0,0,1-2.439-1.4c-.677-1.445-1.581-2.845-2.393-4.245a2.631,2.631,0,0,0-.316-.5v5.69c0,.361-.09.452-.452.452-1.49,0-1.49.045-1.49-1.445v-7.632c0-.452.135-.5.542-.542a1.977,1.977,0,0,1,2.348,1.355c.768,1.581,1.761,3.116,2.619,4.651C326.4,180.9,326.445,180.859,326.49,180.859Z" transform="translate(1308.841 87.727)"/>
    <path id="Path_308" data-name="Path 308" class="cls-1" d="M363.979,179.967a1.456,1.456,0,0,1,.813,1.535c.045.948,0,1.9,0,2.8,0,.271-.09.361-.361.361h-1.355c-.271,0-.361-.09-.361-.361v-2.213c0-.813-.226-1.039-1.039-1.039-.677,0-1.355,0-1.987-.045-.361,0-.406.136-.406.452v2.755c0,.406-.135.5-.5.5-.5-.045-1.174.226-1.49-.135-.316-.316-.09-.948-.09-1.445v-7.541c0-.406.09-.542.5-.5,1.49.045,2.935,0,4.425.045,2.3.135,2.8,1.49,2.619,3.432A1.614,1.614,0,0,1,363.979,179.967Z" transform="translate(1288.918 87.58)"/>
    <path id="Path_310" data-name="Path 310" class="cls-1" d="M307.245,181.051v-5.464c0-.452.09-.587.587-.587,1.355,0,1.355,0,1.355,1.355v7.677c0,.406-.09.542-.542.587a2.033,2.033,0,0,1-2.393-1.4c-.768-1.58-1.716-3.071-2.574-4.606-.181.135-.135.271-.135.406v5.1c0,.406-.09.542-.5.542-1.445,0-1.445,0-1.445-1.4v-7.632c0-.406.09-.542.542-.587a2.056,2.056,0,0,1,2.393,1.4c.768,1.626,1.761,3.116,2.664,4.7C307.2,181.051,307.2,181.051,307.245,181.051Z" transform="translate(1319.371 87.625)"/>
    <path id="Path_311" data-name="Path 311" class="cls-1" d="M345.7,8.619V.942c0-.406.09-.542.5-.542a13.293,13.293,0,0,0,1.9,0c.316,0,.452.045.452.406V16.386c0,.361-.135.406-.452.406-.632,0-1.31-.045-1.942,0-.361,0-.452-.135-.452-.452Z" transform="translate(1321.631 204.929)"/>
    <path id="Path_312" data-name="Path 312" class="cls-1" d="M340.045,179.832V175.5c0-.406.135-.5.5-.5h5.87c.406,0,.542.09.542.5,0,1.4,0,1.4-1.4,1.4h-2.89c-.316,0-.452.09-.452.406-.045,1.445-.045,1.445,1.355,1.445h2.755c.316,0,.406.09.452.406.045,1.445.045,1.445-1.4,1.445-.9,0-1.761.045-2.664,0-.406,0-.542.135-.5.542a3.655,3.655,0,0,1,0,.993c-.09.5.135.587.587.587,1.219-.045,2.439,0,3.613,0,.361,0,.451.09.451.452,0,1.49.045,1.49-1.445,1.49H340.5c-.361,0-.5-.09-.5-.5C340.09,182.722,340.045,181.277,340.045,179.832Z" transform="translate(1298.311 87.625)"/>
    <path id="Path_315" data-name="Path 315" class="cls-1" d="M334.541,8.292v7.27a.7.7,0,0,1-.452.723,10.052,10.052,0,0,1-1.987.587c-.271.045-.406,0-.361-.316a36.079,36.079,0,0,1,.045-4.425c.406-3.748.09-7.5.181-11.244,0-.406.09-.542.5-.5a9.236,9.236,0,0,0,1.58,0c.5-.045.542.135.542.587C334.541,3.415,334.541,5.854,334.541,8.292Z" transform="translate(1329.313 204.939)"/>
    <path id="Path_316" data-name="Path 316" class="cls-1" d="M384.142,184.46h-2.89c-.361,0-.452-.09-.452-.452.045-.723,0-1.4,0-2.122a2.186,2.186,0,0,1,1.761-2.393c.632-.226,1.31-.406,1.942-.632a1.244,1.244,0,0,0,.858-1.761.626.626,0,0,0-.5-.5,2.62,2.62,0,0,0-1.445,0,.983.983,0,0,0-.361.226c-.181.136-.09.5-.406.5a10.333,10.333,0,0,1-1.671-.045c-.226,0-.135-.316-.135-.452a2.209,2.209,0,0,1,1.716-1.9,5.783,5.783,0,0,1,3.161,0,2.019,2.019,0,0,1,1.626,1.626c.226,1.174.361,2.393-.677,3.342a4.289,4.289,0,0,1-1.581.768c-.542.181-1.129.316-1.671.5a1.012,1.012,0,0,0-.632,1.264c.045.271.271.181.452.181h3.748c.361,0,.5.09.5.452,0,1.355,0,1.355-1.355,1.355C385.5,184.46,384.819,184.46,384.142,184.46Z" transform="translate(1275.935 87.783)"/>
    <path id="Path_317" data-name="Path 317" class="cls-1" d="M271.5,16.97V1.3a4.882,4.882,0,0,1,2.664,1.851.647.647,0,0,1,.135.5V14.621a.979.979,0,0,1-.226.632A5.02,5.02,0,0,1,271.5,16.97Z" transform="translate(1362.324 204.435)"/>
    <path id="Path_318" data-name="Path 318" class="cls-1" d="M292.678,8.661V1.075c0-.542.181-.632.632-.587.587.045,1.174,0,1.806,0,.271,0,.361.045.361.361v10.16c0,.271-.09.316-.361.316-.587,0-1.174.045-1.716,0-.361,0-.452.09-.452.452v4.651c0,.135.135.406-.135.406-.226,0-.135-.271-.135-.406Z" transform="translate(1350.719 204.886)"/>
    <path id="Path_319" data-name="Path 319" class="cls-1" d="M301.826,8.8v7.586c0,.406-.09.5-.5.5-1.084,0-1.084,0-1.084-1.129V11.957c0-.271.09-.542-.316-.632-.181-.045-.135-.226-.135-.361V.848c0-.316.09-.406.406-.361,1.671.045,1.671.045,1.671,1.716C301.826,4.37,301.826,6.583,301.826,8.8Z" transform="translate(1346.81 204.887)"/>
    <path id="Path_320" data-name="Path 320" class="cls-1" d="M338.7,15.764V.682c0-.316.09-.361.361-.361.542.045,1.219-.226,1.581.09.316.316.09.993.09,1.49,0,3.342.045,6.683,0,10.025A4.842,4.842,0,0,1,338.7,15.764Z" transform="translate(1325.47 205.008)"/>
    <path id="Path_321" data-name="Path 321" class="cls-1" d="M135.1,69.329V30.9a1.16,1.16,0,0,1,.677,1.174V68.019A1.79,1.79,0,0,1,135.1,69.329Z" transform="translate(1437.13 188.202)"/>
    <path id="Path_322" data-name="Path 322" class="cls-1" d="M287.98,8.619V16.25c0,.406-.09.587-.542.587-1.039-.045-1.039,0-1.039-1.039V1.032c0-.452.045-.632.587-.632,1.039.045,1.039,0,1.039.993C287.98,3.832,287.98,6.225,287.98,8.619Z" transform="translate(1354.153 204.929)"/>
    <path id="Path_323" data-name="Path 323" class="cls-1" d="M89.8,14.2v5.916c0,.406-.135.542-.5.406-.452-.135-1.039.09-1.264-.271-.226-.316-.09-.858-.09-1.31V8.287c0-.406.045-.542.5-.5,1.355.135,1.355.09,1.355,1.49Z" transform="translate(1463.01 200.881)"/>
    <path id="Path_324" data-name="Path 324" class="cls-1" d="M89.851,117.011v5.87c0,.361-.09.5-.452.542-1.4.135-1.4.135-1.4-1.219V111.411c0-.406.09-.587.542-.542a.769.769,0,0,0,.316-.045c.993-.135.993-.135.993.9Z" transform="translate(1462.961 144.403)"/>
    <path id="Path_325" data-name="Path 325" class="cls-1" d="M376.8,8.6v7.632c0,.452-.09.632-.542.542h-.181c-.542.09-.677-.09-.677-.632.045-4.7,0-9.348,0-14.044V.744c0-.271.09-.361.361-.361C376.8.337,376.8.337,376.8,1.331,376.8,3.769,376.8,6.208,376.8,8.6Z" transform="translate(1305.343 204.946)"/>
    <path id="Path_326" data-name="Path 326" class="cls-1" d="M120.7,100.366V81.9a1.872,1.872,0,0,1,.09-.723,16.562,16.562,0,0,0,.9-3.929.044.044,0,0,0,.045-.045v6.683c0,4.967-.045,9.935.045,14.9C121.829,99.688,121.377,100,120.7,100.366Z" transform="translate(1445.027 162.81)"/>
    <path id="Path_327" data-name="Path 327" class="cls-1" d="M120.776,18.1c.181.09.226.135.316.181a1.3,1.3,0,0,1,.768,1.355c-.045,6.954,0,13.954,0,20.908v.632a24.37,24.37,0,0,0-1.039-4.064.994.994,0,0,1-.045-.361V18.461C120.73,18.371,120.776,18.281,120.776,18.1Z" transform="translate(1444.996 195.222)"/>
    <path id="Path_328" data-name="Path 328" class="cls-1" d="M307.645,2.4a3.117,3.117,0,0,1,1.535,2.574V8.225a2.35,2.35,0,0,1-.316,1.445.235.235,0,0,0,.045.361,1.514,1.514,0,0,1,.271,1.084v6.322c0,.361-.045.542-.5.542-1.084-.045-1.084,0-1.084-1.084V3.168A3.893,3.893,0,0,0,307.645,2.4Z" transform="translate(1342.526 203.832)"/>
    <path id="Path_329" data-name="Path 329" class="cls-1" d="M296.368,179.822v4.335c0,.361-.09.542-.5.5a5.1,5.1,0,0,0-1.174,0c-.361.045-.5-.09-.5-.5v-8.67c0-.361.09-.542.5-.5a5.1,5.1,0,0,0,1.174,0c.361-.045.5.09.5.5Z" transform="translate(1323.429 87.635)"/>
    <path id="Path_330" data-name="Path 330" class="cls-1" d="M110.445,12.9c.587.09.858.316.813.948-.045,4.606,0,9.167,0,13.773v.587a1.55,1.55,0,0,1-.858-1.4c.045-4.425,0-8.851,0-13.276A3.2,3.2,0,0,0,110.445,12.9Z" transform="translate(1450.676 198.074)"/>
    <path id="Path_331" data-name="Path 331" class="cls-1" d="M111.291,99.9v14.676a.721.721,0,0,1-.677.587c-.226-.045-.135-.226-.135-.361V101.3A1.608,1.608,0,0,1,111.291,99.9Z" transform="translate(1450.643 150.36)"/>
    <path id="Path_332" data-name="Path 332" class="cls-1" d="M314.713,14.452a7.26,7.26,0,0,1-.813-3.7V.9c0-.361.135-.406.452-.406.271,0,.452-.045.452.361V14.271C314.8,14.316,314.758,14.361,314.713,14.452Z" transform="translate(1339.071 204.876)"/>
    <path id="Path_333" data-name="Path 333" class="cls-1" d="M382.552,8.7v7.677c0,.181.135.5-.271.5-.452,0-.316-.271-.316-.5V.93c0-.181-.136-.406.181-.452.406-.09.406.181.406.5Z" transform="translate(1301.758 204.895)"/>
    <path id="Path_334" data-name="Path 334" class="cls-1" d="M353.574,8.673V1c0-.226-.135-.5.271-.5s.316.226.316.452V16.44c0,.226.09.5-.316.452-.406,0-.271-.271-.271-.5Z" transform="translate(1317.325 204.874)"/>
    <path id="Path_335" data-name="Path 335" class="cls-1" d="M283.8,8.628V.726c0-.135.045-.226.226-.226.135,0,.226.045.226.226v15.9c0,.181-.045.271-.226.271s-.226-.09-.226-.226V8.628Z" transform="translate(1355.578 204.874)"/>
    <path id="Path_336" data-name="Path 336" class="cls-1" d="M282.561,8.673v7.993a.165.165,0,0,1-.181.181c-.135,0-.181-.045-.181-.181V.681c0-.135.09-.181.226-.181s.181.045.181.181v.361C282.561,3.616,282.561,6.145,282.561,8.673Z" transform="translate(1356.456 204.874)"/>
    <path id="Path_337" data-name="Path 337" class="cls-1" d="M305.1,1.395c.5-.045.452.271.452.587V16.929c0,.181.135.452-.181.452-.361,0-.226-.271-.226-.452V1.982A2.574,2.574,0,0,1,305.1,1.395Z" transform="translate(1343.897 204.386)"/>
    <path id="Path_338" data-name="Path 338" class="cls-1" d="M318.271,15.853c-.406-.135-.406-.406-.406-.677V.952c0-.181-.135-.452.181-.452.361,0,.181.271.181.452V12.467C318.271,13.6,318.271,14.724,318.271,15.853Z" transform="translate(1336.912 204.874)"/>
    <path id="Path_339" data-name="Path 339" class="cls-1" d="M278.681,7.6a20.911,20.911,0,0,1,0,10.025H278.5V7.6Z" transform="translate(1358.485 200.98)"/>
    <path id="Path_340" data-name="Path 340" class="cls-1" d="M291.5,8.619V.535a.135.135,0,1,1,.271,0v15.8c-.045.135.09.452-.181.452s-.135-.271-.135-.452C291.5,13.767,291.5,11.193,291.5,8.619Z" transform="translate(1351.397 204.929)"/>
    <path id="Path_342" data-name="Path 342" class="cls-1" d="M330.643,28.938v2.032c0,.135,0,.316-.181.316s-.09-.181-.09-.316V26.861c0-.135-.045-.361.181-.361.181,0,.09.226.09.361Z" transform="translate(1330.049 190.615)"/>
    <path id="Path_343" data-name="Path 343" class="cls-2" d="M401.5,181.916a12.392,12.392,0,0,1,.135-2.258c.135-.677.452-.858,1.264-.858.723,0,1.129.271,1.219.9a16.47,16.47,0,0,1,0,4.471c-.09.632-.452.858-1.219.858-.813,0-1.129-.226-1.264-.858A12.893,12.893,0,0,1,401.5,181.916Z" transform="translate(1264.583 85.541)"/>
    <path id="Path_344" data-name="Path 344" class="cls-3" d="M277.148,92.659c.677,0,1.355-.045,2.032,0a1.434,1.434,0,0,1,1.535,1.49,2.687,2.687,0,0,1-.045,1.039,1.269,1.269,0,0,1-1.219,1.174c-1.445.181-2.935.045-4.38.09-.226,0-.271-.09-.271-.271V92.93c0-.316.181-.271.406-.271h1.942Q277.148,92.591,277.148,92.659Z" transform="translate(1360.514 154.35)"/>
    <path id="Path_345" data-name="Path 345" class="cls-4" d="M245.1,100.458c.587-1.716,1.174-3.342,1.761-5.058.587,1.671,1.129,3.206,1.671,4.742.09.181.045.271-.181.271C247.268,100.458,246.229,100.458,245.1,100.458Z" transform="translate(1376.803 152.828)"/>
    <path id="Path_346" data-name="Path 346" class="cls-5" d="M234.674,53.345c.542,1.535,1.039,3.026,1.581,4.561.09.271.045.361-.226.316h-2.845c-.226,0-.316-.045-.226-.316l1.626-4.606C234.584,53.345,234.629,53.345,234.674,53.345Z" transform="translate(1383.481 175.917)"/>
    <path id="Path_347" data-name="Path 347" class="cls-6" d="M264.993,50.092a12.587,12.587,0,0,1,2.213.09,1.36,1.36,0,0,1,1.264,1.445c0,.135.045.271.045.452,0,1.31-.452,1.806-1.761,1.851-1.264.045-2.574,0-3.838,0-.226,0-.316-.09-.316-.316V50.408c0-.271.09-.316.361-.316C263.548,50.137,264.226,50.092,264.993,50.092Z" transform="translate(1367.205 177.68)"/>
    <path id="Path_348" data-name="Path 348" class="cls-7" d="M307,97.609V93.139c0-.406.09-.5.5-.452a37.167,37.167,0,0,1,3.884.09,1.919,1.919,0,0,1,1.716,1.58,18.114,18.114,0,0,1,.316,4.425,9.646,9.646,0,0,1-.271,2.258,1.958,1.958,0,0,1-2.032,1.671c-1.264.045-2.484,0-3.748.045-.316,0-.316-.181-.316-.406C307,100.725,307,99.145,307,97.609Z" transform="translate(1342.855 154.322)"/>
    <path id="Path_349" data-name="Path 349" class="cls-6" d="M174.161,95.4c.587,1.716,1.174,3.342,1.761,5.012H172.4C172.987,98.787,173.529,97.161,174.161,95.4Z" transform="translate(1416.673 152.828)"/>
    <path id="Path_350" data-name="Path 350" class="cls-3" d="M276.453,92.649c.477,0,.954-.032,1.431,0a1.01,1.01,0,0,1,1.081,1.049,1.891,1.891,0,0,1-.032.731.894.894,0,0,1-.859.827c-1.018.127-2.067.032-3.084.064-.159,0-.191-.064-.191-.191V92.84c0-.223.127-.191.286-.191h1.367Q276.453,92.6,276.453,92.649Z" transform="translate(1372.885 171.22)"/>
  </g>
</svg>
