<svg xmlns="http://www.w3.org/2000/svg" viewBox="257.923 -17915.875 86.475 86.621">
  <defs>
    <style>
      .cls-1 {
        fill: #fefefe;
      }

      .cls-2 {
        fill: #fdfdfd;
      }

      .cls-3 {
        fill: #85bd41;
      }

      .cls-4 {
        fill: #fff;
      }

      .cls-5 {
        fill: #646b6b;
      }
    </style>
  </defs>
  <g id="Group_257" data-name="Group 257" transform="translate(6 -18124)">
    <path id="Path_376" data-name="Path 376" class="cls-1" d="M58.154,82.619c.485-2.621,1.068-5.243,1.456-7.767.194-1.068.485-1.553,1.553-1.359a7.3,7.3,0,0,0,1.456,0c-.874,3.689-1.845,7.281-2.718,10.873a6.8,6.8,0,0,0-.291,1.359c-.1.971-.485,1.165-1.456,1.262-1.165,0-1.553-.388-1.747-1.456a60.37,60.37,0,0,0-1.845-6.893c-.582,2.427-1.262,4.854-1.845,7.281-.194.971-.68.971-1.359.874s-1.456.388-1.747-.874c-.874-3.883-1.942-7.864-2.912-11.747-.194-.68,0-.874.68-.874,2.039,0,2.039,0,2.427,1.942.485,2.427.874,4.757,1.553,7.184.485-1.845.971-3.689,1.359-5.534a15.8,15.8,0,0,0,.68-2.913c.1-.874.777-.68,1.262-.68.582,0,1.068-.1,1.262.777.582,2.524,1.262,5.145,1.845,7.67A1.054,1.054,0,0,0,58.154,82.619Z" transform="translate(221.016 178.519)"/>
    <path id="Path_377" data-name="Path 377" class="cls-1" d="M84.805,86.7a.734.734,0,0,1-.388.1c-2.524.194-2.524.194-3.495-2.136-.291-.777-.68-1.456-.971-2.233-.194-.485-.485-.583-.971-.68-1.068-.1-1.553.194-1.456,1.359a11.7,11.7,0,0,1,0,1.845c0,1.845-.485,2.136-2.233,1.748-.194.1-.291-.1-.291-.485V74.08c0-.485.194-.68.68-.68h6.31a2.474,2.474,0,0,1,2.524,2.621v3.107a2.219,2.219,0,0,1-1.165,2.233c-.582.291-.485.68-.291,1.068C83.64,83.982,84.223,85.341,84.805,86.7Z" transform="translate(220.188 178.515)"/>
    <path id="Path_378" data-name="Path 378" class="cls-1" d="M84.5,70.5l-.194.1c-2.621.194-2.621.194-3.689-2.233l-.874-2.039a.871.871,0,0,0-.971-.68c-1.456,0-1.456-.1-1.456,1.456v1.748c0,1.747-.582,2.233-2.33,1.747-.485-.1-.388-.388-.388-.68V57.877c0-.582.194-.777.777-.777H81.59a2.374,2.374,0,0,1,2.524,2.621c.1,1.068,0,2.136,0,3.3a2.381,2.381,0,0,1-1.262,2.233c-.582.291-.388.582-.194.971A43.462,43.462,0,0,0,84.5,70.5Z" transform="translate(220.2 178.991)"/>
    <path id="Path_379" data-name="Path 379" class="cls-1" d="M86.6,80.1V74.274c0-.68.1-.874.777-.874H93.4c1.845,0,2.718.971,2.815,2.815v7.767A2.415,2.415,0,0,1,93.493,86.7H87.474c-.777,0-.874-.291-.874-.971Z" transform="translate(219.85 178.515)"/>
    <path id="Path_380" data-name="Path 380" class="cls-1" d="M43.852,70.691a20.245,20.245,0,0,1-2.427,0c-1.747-.1-3.107-2.718-2.233-4.078.388-.68,1.359-.194,2.039-.291.582-.1.582.388.582.777-.1.777.291,1.068,1.068.971h1.553c1.553,0,1.942-.485,1.553-1.942-.1-.485-.485-.583-.874-.68-1.068-.194-2.233-.485-3.3-.68-1.845-.388-2.524-1.359-2.621-3.3-.1-3.3.388-4.563,4.369-4.369h2.427a2.936,2.936,0,0,1,2.524,3.883.559.559,0,0,1-.777.291c-.874-.1-2.233.582-1.942-1.262,0-.291-.194-.388-.485-.388a27.231,27.231,0,0,0-2.815,0c-.874.291-.582.971-.582,1.359,0,.583-.1,1.068.68,1.262,1.068.194,2.136.485,3.2.68,2.136.485,2.912,1.359,2.912,3.5v1.068c0,2.33-.874,3.2-3.107,3.2Z" transform="translate(221.241 178.991)"/>
    <path id="Path_381" data-name="Path 381" class="cls-1" d="M103.056,86.989h-1.942a3.038,3.038,0,0,1-2.621-4.175c.1-.291.291-.291.583-.291h1.359c.583-.1.777.194.68.68-.1.874.291,1.165,1.165,1.068h1.359c.583-.1,1.456.291,1.553-.874.1-1.456,0-1.65-1.359-1.942-1.068-.194-2.136-.388-3.2-.68a2.7,2.7,0,0,1-2.233-3.01c0-4.077.388-4.466,4.466-4.466h2.427a3,3,0,0,1,2.33,3.98c-.1.291-.291.291-.583.291h-1.553c-.485,0-.68-.1-.583-.582,0-.194.1-.388,0-.485-.68-1.262-1.942-.388-2.912-.582-.583-.1-.971.194-.971.874,0,.874,0,1.553,1.165,1.748a19.941,19.941,0,0,1,3.3.68,2.771,2.771,0,0,1,2.33,3.01c.1,4.175-.388,4.66-4.563,4.66a.3.3,0,0,1-.194.1Z" transform="translate(219.509 178.518)"/>
    <path id="Path_382" data-name="Path 382" class="cls-2" d="M97.794,63.9V58.169c0-.68.194-.971.874-.971h.971q1.019-.146.874.874c-.1,1.165,0,2.427,0,3.592,0,.582.194.777.68.777h.1c1.262-.1,2.815.485,3.592-.291.582-.582.1-2.233.194-3.4,0-.485-.291-1.262.194-1.456a5.292,5.292,0,0,1,2.136-.1c.388,0,.291.388.291.582V69.916c0,.485-.194.582-.68.68-2.039.1-2.039.1-2.039-1.845V65.839c0-.582-.1-.874-.777-.777h-3.01c-.582,0-.777.194-.777.777v3.883c0,.777-.291,1.068-.971.971h-.971c-.68.1-.874-.194-.874-.874C97.794,67.877,97.794,65.839,97.794,63.9Z" transform="translate(219.529 178.99)"/>
    <path id="Path_383" data-name="Path 383" class="cls-1" d="M50.7,64V58.27c0-.777.194-1.068.971-.971h6.99c.68,0,.971.194.874.874-.1,2.039.194,1.65-1.65,1.65H54.292c-.68,0-.971.194-.874.874v.1c0,1.747,0,1.747,1.65,1.747a11.7,11.7,0,0,0,1.845,0c1.068-.1,1.456.194,1.456,1.359,0,1.068-.291,1.456-1.359,1.262a6.343,6.343,0,0,0-1.359,0c-2.33,0-2.233,0-2.233,2.233,0,.68.291.777.777.777h4.466c.68,0,.971.194.874.874v1.165c0,.485-.194.583-.582.583H51.38c-.582,0-.68-.291-.68-.777Z" transform="translate(220.897 178.985)"/>
    <path id="Path_384" data-name="Path 384" class="cls-1" d="M86.2,63.9V60.013c0-1.942.971-2.913,2.815-2.913H92.9a2.515,2.515,0,0,1,2.815,2.815V60.5c0,1.456,0,1.456-1.553,1.553-.971,0-1.359-.194-1.262-1.165.194-.874-.291-1.165-1.068-1.165-2.912,0-2.912-.1-2.912,2.815,0,1.456.1,2.913,0,4.466-.1.971.291,1.262,1.165,1.165h.777c1.747,0,1.747,0,2.039-1.748.1-.388.194-.485.582-.582,2.039-.291,2.233-.194,2.233,1.942,0,2.039-.971,2.913-2.912,2.913H89.112c-1.942,0-2.912-.874-2.912-2.913Z" transform="translate(219.862 178.991)"/>
    <path id="Path_385" data-name="Path 385" class="cls-1" d="M41.828,73.5c1.262-.485,1.747.291,2.039,1.359,1.068,3.689,2.33,7.281,3.495,10.97.291.971,0,1.165-.777,1.068h-.1c-1.359.291-2.039-.388-2.233-1.65-.1-1.068-.68-1.456-1.65-1.262h-.194a7.161,7.161,0,0,0-2.524.1c-.777.388-.68,1.456-.874,2.233-.291.874-.874.583-1.456.583-1.65,0-1.65,0-1.165-1.456,1.068-3.495,2.33-6.893,3.3-10.388C40.081,73.884,40.372,73.01,41.828,73.5Z" transform="translate(221.323 178.517)"/>
    <path id="Path_386" data-name="Path 386" class="cls-1" d="M71.505,86.9c-.874.291-1.262-.194-1.553-1.262-.388-1.748-.485-1.65-2.233-1.65h-.194c-2.136,0-2.136,0-2.815,2.039-.194.777-2.136,1.262-2.815.874-.291-.194-.194-.388-.1-.583,1.262-4.077,2.621-8.155,3.98-12.233.1-.388.388-.485.777-.485,2.524-.194,2.524-.194,3.2,2.233,1.068,3.2,2.136,6.5,3.107,9.708C73.447,87.189,73.35,86.8,71.505,86.9Z" transform="translate(220.576 178.512)"/>
    <path id="Path_387" data-name="Path 387" class="cls-1" d="M72.851,70.6c-.194,0-.291.1-.388.1-2.427.1-2.427.1-3.2-2.33-.194-.485-.291-.874-.971-.68h-.68c-.874,0-1.942-.291-2.621.1-.777.388-.68,1.553-.971,2.33a.642.642,0,0,1-.68.582H62.172c-.874.1-1.165-.1-.777-1.068,1.262-3.786,2.524-7.573,3.689-11.359A1.28,1.28,0,0,1,66.54,57.2c2.039.1,2.039,0,2.718,2.039C70.424,63.025,71.686,66.811,72.851,70.6Z" transform="translate(220.59 178.988)"/>
    <path id="Path_388" data-name="Path 388" class="cls-3" d="M68.1,100.276V99.014A2.457,2.457,0,0,1,69.847,96.3c1.262-.485,2.621-.971,3.98-1.456.777-.291.874-.777.874-1.553s-.388-.971-1.068-1.068c-1.165-.291-.485-1.262-.582-1.942s.291-.68.874-.777c2.33-.1,3.495,1.068,3.495,3.3.1,3.107-.291,3.592-3.107,4.563-.874.291-1.845.68-2.718.971-.777.291-.874.777-.777,1.456,0,.777.582.582,1.068.582,1.165,0,.68.874.777,1.456,0,.582.194,1.262-.777,1.165h-.777C68.1,103.092,68.1,103.092,68.1,100.276Z" transform="translate(220.39 178.046)"/>
    <path id="Path_389" data-name="Path 389" class="cls-3" d="M79.5,96.291V92.214c.1-1.942,2.427-3.5,4.175-2.621.777.388.291,1.165.388,1.845.1.485-.1.777-.582.777-1.068,0-1.262.583-1.165,1.456.1,1.845,0,3.689,0,5.631,0,.777.194,1.262,1.068,1.359,1.359.1.68,1.165.777,1.845.1.777-.485.777-.971.777-2.427.1-3.495-.777-3.495-3.2A24.743,24.743,0,0,1,79.5,96.291Z" transform="translate(220.057 178.05)"/>
    <path id="Path_390" data-name="Path 390" class="cls-3" d="M89.164,96.493v3.98a2.982,2.982,0,0,1-4.077,2.718c-.777-.388-.291-1.165-.388-1.748-.1-.485.1-.874.68-.777.971.1,1.068-.485,1.068-1.262V93.58c0-.777-.1-1.165-1.068-1.262-1.262-.1-.485-1.165-.68-1.747-.1-.583.1-.874.777-.971,2.524-.1,3.592.874,3.592,3.3C89.164,94.066,89.164,95.328,89.164,96.493Z" transform="translate(219.907 178.043)"/>
    <path id="Path_391" data-name="Path 391" class="cls-3" d="M93.525,92.611a3.6,3.6,0,0,1-.874.194c-.485.1-.971.68-1.456.1a1.781,1.781,0,0,1,.777-2.233,5.63,5.63,0,0,1,3.495-.971c.582.1.777.194.777.874V102.32c0,.583-.291.777-.874.777-1.942.1-1.942.1-1.942-1.845C93.525,98.436,93.525,95.621,93.525,92.611Z" transform="translate(219.72 178.041)"/>
    <path id="Path_392" data-name="Path 392" class="cls-3" d="M85,46.922V42.068c0-.777.194-1.068.971-1.068,1.747,0,1.747,0,1.747,1.748v7.864c0,.777.194,1.359,1.165,1.262.874-.1.777.582.68,1.165s.291,1.456-.777,1.553c-2.524.194-3.98-.68-3.883-3.3C85,49.835,85,48.378,85,46.922Z" transform="translate(219.9 179.46)"/>
    <path id="Path_393" data-name="Path 393" class="cls-3" d="M94.661,46.922v4.66a2.96,2.96,0,0,1-4.077,2.913c-.874-.291-.388-1.165-.485-1.748-.1-.485.1-.874.68-.777.971.1,1.068-.485,1.068-1.359,0-2.815.1-5.631,0-8.446,0-1.262.68-1.068,1.456-1.165.777,0,1.456,0,1.359,1.068C94.564,43.718,94.661,45.369,94.661,46.922Z" transform="translate(219.749 179.46)"/>
    <path id="Path_394" data-name="Path 394" class="cls-3" d="M98.6,103.1c1.747-3.107,3.3-6.019,4.951-8.835.68-1.262,1.456-2.427,2.039-3.786.485-.971,1.165-.777,1.845-.68.777.1.388.874.388,1.359a3.273,3.273,0,0,1-.485,1.65c-1.65,3.01-3.4,5.922-4.951,8.932a2.12,2.12,0,0,1-2.427,1.359A6.289,6.289,0,0,0,98.6,103.1Z" transform="translate(219.5 178.039)"/>
    <path id="Path_395" data-name="Path 395" class="cls-3" d="M99.821,47.7v5.825c0,1.068-.582.971-1.262.971s-1.456.194-1.359-.971c0-3.883.1-7.67,0-11.553,0-1.068.582-.971,1.262-.971s1.456-.291,1.359.971C99.724,43.912,99.821,45.756,99.821,47.7Z" transform="translate(219.541 179.461)"/>
    <path id="Path_396" data-name="Path 396" class="cls-4" d="M18,22.842V21a2.768,2.768,0,0,1,2.721-2.8H24.48c.56,0,.8.16.8.8,0,.56-.08.961-.8.961H21.438c-1.521,0-1.761.24-1.761,1.681v3.042c0,.64-.32.8-.88.8-.64,0-.88-.24-.8-.88A12.914,12.914,0,0,0,18,22.842Z" transform="translate(233.941 190.005)"/>
    <path id="Path_397" data-name="Path 397" class="cls-4" d="M22.654,124.484h-2a2.754,2.754,0,0,1-2.561-2.561c-.08-1.361,0-2.721,0-4,0-.56.24-.72.8-.72.48,0,.961,0,.88.64v2.8c0,2.081.08,2.161,2.161,2.161h2.561c.64,0,.8.32.8.88,0,.64-.24.88-.8.8A14.113,14.113,0,0,0,22.654,124.484Z" transform="translate(233.926 170.247)"/>
    <path id="Path_398" data-name="Path 398" class="cls-4" d="M124.184,119.9v1.841a2.681,2.681,0,0,1-2.721,2.641H117.7c-.64,0-.8-.24-.8-.88s.24-.88.88-.88h3.362c1.041,0,1.361-.32,1.361-1.361V117.9c0-.64.24-.8.88-.8s.88.24.8.8Z" transform="translate(214.199 170.267)"/>
    <path id="Path_399" data-name="Path 399" class="cls-4" d="M124.2,22.822v1.761c.08.64-.16.961-.8.88-.72,0-.88-.32-.88-.961V21.142a1.112,1.112,0,0,0-1.281-1.281H117.8c-.64,0-.8-.24-.8-.88,0-.56.16-.88.8-.88,1.2.08,2.4,0,3.6,0a2.784,2.784,0,0,1,2.8,2.8Z" transform="translate(214.179 190.025)"/>
    <path id="Path_400" data-name="Path 400" class="cls-3" d="M107.584,41.194c-2.33,3.01-4.563,5.825-6.8,8.835a4.821,4.821,0,0,1,.194-4.175c.68-.971,1.456-1.845,2.039-2.815C103.992,41.1,105.448,40.709,107.584,41.194Z" transform="translate(219.447 179.46)"/>
    <path id="Path_401" data-name="Path 401" class="cls-3" d="M106.576,54.578a1.818,1.818,0,0,1-2.33-1.262c-.485-1.165-1.165-2.233-1.747-3.4-.291-.485.777-2.621,1.359-2.718.291,0,.291.194.388.291,1.165,2.136,2.427,4.272,3.4,6.5C108.226,55.355,106.77,54.287,106.576,54.578Z" transform="translate(219.388 179.279)"/>
    <path id="Path_402" data-name="Path 402" class="cls-3" d="M101.11,92.324a8.286,8.286,0,0,0-1.553,0c-1.068.194-1.456-.291-1.456-1.359,0-.874.194-1.262,1.165-1.165,1.747.1,3.495,0,5.242,0,.68,0,.68.194.485.777C104.41,92.712,102.76,92.421,101.11,92.324Z" transform="translate(219.515 178.037)"/>
    <path id="Path_403" data-name="Path 403" class="cls-3" d="M72.569,90.761c.1.971.1,1.553-.971,1.456a.515.515,0,0,0-.582.583c-.1,1.65-1.359.777-2.136.874-.971.1-.582-.777-.582-1.262a3.073,3.073,0,0,1,3.98-2.815C72.958,89.79,72.472,90.567,72.569,90.761Z" transform="translate(220.386 178.047)"/>
    <path id="Path_404" data-name="Path 404" class="cls-3" d="M75.431,100.8H76.4c.971-.1,1.359.194,1.359,1.262s-.291,1.456-1.359,1.359a9.353,9.353,0,0,0-1.65,0c-1.359,0-1.942-.971-1.456-2.233.1-.388.388-.291.68-.291a6.877,6.877,0,0,1,1.456-.1Z" transform="translate(220.243 177.717)"/>
    <path id="Path_405" data-name="Path 405" class="cls-5" d="M79.839,76.1c1.942,0,2.524.874,2.039,2.815-.1.388-.291.485-.68.485H79.645c-1.845,0-1.845,0-1.845-1.845C77.8,76.1,77.8,76.1,79.839,76.1Z" transform="translate(220.107 178.436)"/>
    <path id="Path_406" data-name="Path 406" class="cls-5" d="M79.247,63.2c-1.747,0-1.845,0-1.747-1.845,0-1.65-.194-1.456,1.456-1.456h.388c2.233,0,2.621.388,2.233,2.621-.1.485-.291.68-.777.68Z" transform="translate(220.116 178.909)"/>
    <path id="Path_407" data-name="Path 407" class="cls-5" d="M89.4,80.275v-3.4c0-.582.194-.777.777-.777H92.7a.772.772,0,0,1,.874.874v6.6a.715.715,0,0,1-.777.777H89.98c-.582,0-.68-.291-.68-.68C89.4,82.508,89.4,81.44,89.4,80.275Z" transform="translate(219.771 178.436)"/>
    <path id="Path_408" data-name="Path 408" class="cls-5" d="M41.861,76.7c.485,1.553.874,2.815,1.165,4.078.194.485,0,.68-.582.68-2.136.1-2.136.194-1.553-1.845A17.031,17.031,0,0,0,41.861,76.7Z" transform="translate(221.193 178.419)"/>
    <path id="Path_409" data-name="Path 409" class="cls-5" d="M67.562,76.9c.388,1.359.777,2.621,1.165,3.883.1.388.1.582-.485.68-2.136.194-2.233.194-1.65-1.845.194-.777.485-1.65.68-2.427C67.465,77.094,67.465,77,67.562,76.9Z" transform="translate(220.443 178.413)"/>
    <path id="Path_410" data-name="Path 410" class="cls-5" d="M65.7,65.16c.485-1.553.874-2.913,1.359-4.66.485,1.553.874,2.913,1.262,4.175.1.485-.1.485-.485.485Z" transform="translate(220.46 178.891)"/>
  </g>
</svg>
